{
    "jet_collection": "AntiKt4HIJets",
    "calibration": {
        "collection": "AntiKt4HI",
        "configuration": "JES_MC16_HI_Jan2021_5TeV.config",
        "seq": "EtaJES",
        "area": "00-04-82",
        "jvt_cut": 0
    },
    "selection": {
        "minimum_jet_pt": 20000,
        "maximum_jet_absolute_eta": 2.5
    },
    "vertex_collection": "PrimaryVertices",
    "dl2_configs": [],
    "variables": {
        "btag": {
            "file": "fragments/single-btag-variables.json",
            "floats": [
                "DL1_pu",
                "DL1_pc",
                "DL1_pb"
            ],
            "event": [
                "FCal_Et_TeV"
            ]
        },
        "default_mapping": {
            "file": "fragments/default-mapping.json"
        }
    },
    "tracks": [
        {
            "n_to_save": 100,
            "selection": {
                "file": "fragments/ip3d-loose-track-cuts.json"
            },
            "sort_order": "abs_beamspot_d0",
            "btagging_link": "btaggingLink",
            "input_name": "BTagTrackToJetAssociator",
            "output_name": "tracks",
            "variables": {
                "file": "fragments/single-btag-track-variables.json"
            },
            "ip_prefix": "btagIp_"
        }
    ],
    "truths": [],
    "decorate": {
        "jet_aug": true,
        "btag_jes": true,
        "do_heavyions": true,
        "soft_muon": false,
        "track_truth_info": false,
        "track_sv_info": false,
        "track_lepton_id": false,
        "track_ambiguity_solver_ranking": false
    },
    "btagging_link": "btaggingLink"
}
