{
    "jet_collection": "AntiKt10LCTopoTrimmedPtFrac5SmallR20",
    "jet_calib_file": "JES_MC16recommendation_FatJet_JMS_comb_19Jan2018.config",
    "cal_seq": "EtaJES_JMS",
    "cal_area": "00-04-81",
    "do_heavyions": "false", 
    "n_const": 0,
    "top_tag_config": "JSSWTopTaggerDNN/JSSDNNTagger_AntiKt10LCTopoTrimmed_TopQuarkContained_MC15c_20170824_BOOSTSetup80Eff.dat",
    "hbb_tag_config": [],
    "truth_wz_electron_container": "TruthWbosonWithDecayParticles",
    "subjets": [
        {
            "input_name": "GhostVR30Rmax4Rmin02TrackJet",
            "output_name": "VR",
            "min_jet_pt": 7000,
            "num_const": 0,
            "n_tracks": 20,
            "get_subjets_from_parent": true,
            "n_subjets_to_save": 3,
            "variables": {
                "file": "variables/btag.json"
            },
            "dl2_configs": [
            ]
        },
        {
            "input_name": "GhostVR30Rmax4Rmin02TrackJetGhostTag",
            "output_name": "VRGhostTag",
            "min_jet_pt": 5000,
            "num_const": 0,
            "n_tracks": 0,
            "get_subjets_from_parent": true,
            "n_subjets_to_save": 3,
            "variables": {
                "file": "variables/btag.json"
            },
            "dl2_configs": []
        }
    ],
    "decorate_with_vr_overlap": [
        "AntiKtVR30Rmax4Rmin02TrackJets",
        "AntiKtVR30Rmax4Rmin02TrackGhostTagJets"
    ],
    "variables": {
        "file": "variables/fat_jet.json"
    }
}
